[
    [
        {
            "label": "Broad",
            "x": 11.2035303,
            "y": 11.1105404,
            "angle": 330,
            "font-size": 9
        },
        {
            "label": "Street",
            "x": 12.0319996,
            "y": 11.5349998,
            "angle": 330,
            "font-size": 9
        }
    ],
    [
        {
            "label": "Great Marlborough Street",
            "x": 8.8964672,
            "y": 13.560133,
            "angle": 337,
            "font-size": 7
        }
    ],
    [
        {
            "label": "Poland",
            "x": 11.165,
            "y": 16.7099991,
            "angle": 70,
            "font-size": 17
        },
        {
            "label": "Street",
            "x": 12,
            "y": 14.25,
            "angle": 65.5,
            "font-size": 17
        }
    ]
]